…
_* a printout of the first 10 lines of `IN_tally`_

```r
> IN_tally
# A tibble: 110 x 4
# Groups:   Site, State [1]
   Site     State  Year NumObs
   <chr>    <chr> <dbl>  <int>
 1 03373500 IN     1903     92
 2 03373500 IN     1904    366
 3 03373500 IN     1905    365
 4 03373500 IN     1906     90
 5 03373500 IN     1909    275
 6 03373500 IN     1910    365
 7 03373500 IN     1911    365
 8 03373500 IN     1912    366
 9 03373500 IN     1913    365
10 03373500 IN     1914    365
# … with 100 more rows
```
…
