…
- [ ] Populate your `tar_combine()` call with input for just the tally branches by subsetting the `tar_map()` output object, and the appropriate call to `combine_obs_tallies()` for the `command` (remember you will need `!!!.x`).

#### Test

Run `tar_make()` and then `tar_load(obs_tallies)`. Inspect the value of `obs_tallies`. Is it what you expected? Note your observations for a comparison with the expected answer.

<hr>

_Inspect the value of `obs_tallies`. Is it what you expected?_

Here's what my `obs_tallies` looks like. Your number of rows might vary slightly if you build this at a time when the available data have changed substantially, but the column structure and approximate number of rows ought to be about the same. If it looks like this, then it meets my expectations and hopefully also yours.
```
> obs_tallies
# A tibble: 738 x 4
# Groups:   Site, State [6]
   Site     State  Year NumObs
   <chr>    <chr> <dbl>  <int>
 1 04073500 WI     1898    365
 2 04073500 WI     1899    365
 3 04073500 WI     1900    365
 4 04073500 WI     1901    365
 5 04073500 WI     1902    365
 6 04073500 WI     1903    365
 7 04073500 WI     1904    366
 8 04073500 WI     1905    365
 9 04073500 WI     1906    365
10 04073500 WI     1907    365
#  with 728 more rows
```
…
